<svg version="1.1" xmlns="http://www.w3.org/2000/svg" xmlns:xlink="http://www.w3.org/1999/xlink" x="0px" y="0px"
	 viewBox="0 0 223.413 223.413" style="enable-background:new 0 0 223.413 223.413;" xml:space="preserve">
<g>
	<g>
		<g>
			<polygon style="fill:#010002;" points="57.179,223.413 51.224,217.276 159.925,111.71 51.224,6.127 57.179,0 172.189,111.71 			
				"/>
		</g>
	</g>
</g>
<g>
</g>
<g>
</g>
<g>
</g>
<g>
</g>
<g>
</g>
<g>
</g>
<g>
</g>
<g>
</g>
<g>
</g>
<g>
</g>
<g>
</g>
<g>
</g>
<g>
</g>
<g>
</g>
<g>
</g>
</svg>
